<svg width="20" height="21" viewBox="0 0 20 21" xmlns="http://www.w3.org/2000/svg">
    <path d="m18.826 12.026-.797-.664a1.145 1.145 0 0 1 0-1.754l.797-.665a1.522 1.522 0 0 0 .346-1.927l-1.575-2.76a1.486 1.486 0 0 0-1.823-.66l-.968.366a1.123 1.123 0 0 1-1.502-.877l-.17-1.031A1.498 1.498 0 0 0 11.656.788h-3.15c-.736 0-1.357.532-1.478 1.266l-.17 1.03a1.123 1.123 0 0 1-1.502.878l-.968-.367a1.486 1.486 0 0 0-1.823.662L.99 7.016a1.522 1.522 0 0 0 .345 1.927l.798.665c.546.455.545 1.3 0 1.754l-.798.664a1.522 1.522 0 0 0-.345 1.928l1.575 2.759a1.486 1.486 0 0 0 1.823.661l.968-.366a1.123 1.123 0 0 1 1.502.877l.17 1.03c.12.734.742 1.267 1.478 1.267h3.15c.735 0 1.357-.533 1.478-1.266l.17-1.031a1.123 1.123 0 0 1 1.502-.877l.968.366a1.486 1.486 0 0 0 1.823-.661l1.575-2.76a1.522 1.522 0 0 0-.346-1.927zm-2.527 3.93-.967-.367c-1.547-.586-3.235.402-3.506 2.047l-.17 1.03h-3.15l-.17-1.03c-.272-1.648-1.962-2.632-3.506-2.047l-.968.366-1.575-2.759.798-.664a2.67 2.67 0 0 0 0-4.094l-.798-.664 1.576-2.76.967.367c1.547.586 3.235-.403 3.506-2.047l.17-1.031h3.15l.17 1.03c.271 1.649 1.962 2.633 3.506 2.048l.967-.367 1.576 2.76-.798.664a2.67 2.67 0 0 0 0 4.094l.797.664-1.575 2.76zm-6.218-9.209c-2.038 0-3.695 1.677-3.695 3.738 0 2.06 1.657 3.737 3.695 3.737 2.037 0 3.695-1.676 3.695-3.737 0-2.06-1.658-3.738-3.695-3.738zm0 5.96c-1.212 0-2.197-.997-2.197-2.222s.985-2.222 2.197-2.222c1.211 0 2.197.997 2.197 2.222s-.986 2.222-2.197 2.222z" fill="#DE1D9D" fill-rule="nonzero"/>
</svg>
